GERMS-DS - Beginning Predictions
…
The ideal situation is that all the column names match exactly and we can just use any_of to get those columns from this data frame. However, when we try that, we see that we still have some work to do:

dnr.2018 %>% 
  select(any_of(colnames(dnr.2021)))

# A tibble: 539 × 3
   collected_date      environmental_location   p_h
   <dttm>              <chr>                  <dbl>
 1 2018-05-22 11:19:00 Backbone Beach           8.1
 2 2018-06-19 09:00:00 Backbone Beach           8.8
 3 2018-08-21 13:00:00 Backbone Beach           8.9
 4 2018-07-10 11:15:00 Backbone Beach           8.2
 5 2018-08-28 12:30:00 Backbone Beach           8.8
 6 2018-08-14 10:30:00 Backbone Beach           8  
 7 2018-08-07 11:10:00 Backbone Beach           7.7
 8 2018-07-24 12:00:00 Backbone Beach           8.9
 9 2018-07-31 11:25:00 Backbone Beach           8.5
10 2018-07-02 11:15:00 Backbone Beach           7.9
# … with 529 more rows
…
Next, we create a recipe. A recipe is a series of data processing steps to perform on our data before we feed it into our model. Here, the only steps we’ll take is to remove non-informative variables and to impute some missing values by filling in the mean.

hab_recipe <- recipe(microcystin ~ ., training_data) %>% 
  step_rm(collected_date, label) %>% 
  step_impute_mean(all_numeric())

We can take a look at the preprocessed data set by using the prep and juice functions. prep will perform the steps outlined in the pre-processing recipe. For example, in our recipe above, it will calculate the mean of all the numeric columns. juice will then return the transformed dataset resulting from following all the steps in the recipe:

hab_recipe %>% 
  prep %>% 
  juice

# A tibble: 1,193 × 13
   environmental_loca…   tkp    tkn   p_h   x16s mcy_a_m mcy_a_p mcy_a_a ortho_p
   <fct>               <dbl>  <dbl> <dbl>  <dbl>   <dbl>   <dbl>   <dbl>   <dbl>
 1 Backbone Beach      1.61   0.66   8.1  1.47e5       0       0       0  0.0430
 2 Backbone Beach      1.06   0.517  8.8  4.23e2       0       0       0  0.0430
 3 Backbone Beach      1.22   0.505  8.2  1.08e7    1240       0       0  0.0430
 4 Backbone Beach      1.02   1.14   8.8  7.65e6       0       0       0  0.0430
 5 Backbone Beach      1.15   0.298  8    4.46e7       0       0       0  0.0430
 6 Backbone Beach      0.922 -0.24   7.7  2.66e7       0       0       0  0.0430
 7 Backbone Beach      0.041  0.233  8.9  5.04e6       0       0       0  0.0430
 8 Backbone Beach      0.491  0.264  8.5  1.09e7     432       0       0  0.0430
 9 Backbone Beach      1.12   0.437  7.9  6.09e6       0       0       0  0.0430
10 Backbone Beach      1.22   0.569  7.28 4.44e6       0       0       0  0.0430
# … with 1,183 more rows, and 4 more variables: dissolved_oxygen_mg_l <dbl>,
#   hazard_class <fct>, year <dbl>, microcystin <dbl>
…
lm_fit %>% 
  collect_metrics

# A tibble: 2 × 4
  .metric .estimator .estimate .config             
  <chr>   <chr>          <dbl> <chr>               
1 rmse    standard       3.42  Preprocessor1_Model1
2 rsq     standard       0.692 Preprocessor1_Model1

We can also collect the predictions via collect_predictions:

lm_fit %>% 
  collect_predictions() 

# A tibble: 398 × 5
   id               .pred  .row microcystin .config             
   <chr>            <dbl> <int>       <dbl> <chr>               
 1 train/test split 0.967     3       0.438 Preprocessor1_Model1
 2 train/test split 0.661    13       0.153 Preprocessor1_Model1
 3 train/test split 1.53     21       0.377 Preprocessor1_Model1
 4 train/test split 2.12     23       0.195 Preprocessor1_Model1
 5 train/test split 2.03     30       0     Preprocessor1_Model1
 6 train/test split 0.654    31       0.855 Preprocessor1_Model1
 7 train/test split 0.837    34       0.69  Preprocessor1_Model1
 8 train/test split 0.677    36       0.405 Preprocessor1_Model1
 9 train/test split 0.673    43       0.003 Preprocessor1_Model1
10 train/test split 0.423    44       0     Preprocessor1_Model1
# … with 388 more rows
…
