GERMS-DS - Getting Started
…
The data shows a long right tail. This is our first hint that this is a highly imbalanced dataset.

Creating the hazard_class variable

To get a better idea of this, let’s create a new class variable based on the microcystin concentration: if the microcystin is greater than 8 ug/L, we’ll say that it is hazardous, and safe otherwise. For now, let’s just check print out the results and check that it works as we expected it to:

dnr.2018 %>% 
  mutate(hazard_class = if_else(
    microcystin_raw_value_ug_l > 8,
    "hazardous",
    "safe"
  )) %>% 
  select(microcystin_raw_value_ug_l, hazard_class)

# A tibble: 539 × 2
   microcystin_raw_value_ug_l hazard_class
                        <dbl> <chr>       
 1                      0.63  safe        
 2                      0.46  safe        
 3                      0.438 safe        
 4                      0.425 safe        
 5                      0.418 safe        
 6                      0.405 safe        
 7                      0.39  safe        
 8                      0.3   safe        
 9                      0.237 safe        
10                      0.205 safe        
# … with 529 more rows
…
